excute/tb_probe.vcd
$date
    Mar 29, 2019  02:21:40
$end
$version
    TOOL:	ncsim(64)	15.20-s051
$end
$timescale
    1 ns
$end

$scope module tb_execute_stage_probe $end
$var reg      32 !    pc [31:0] $end
$var reg      32 "    op1 [31:0] $end
$var reg      32 #    op2 [31:0] $end
$var reg       1 $    pipeline_flush  $end
$var reg      32 %    immediate [31:0] $end
$var reg       7 &    func7 [6:0] $end
$var reg       3 '    func3 [2:0] $end
$var reg       7 (    opcode [6:0] $end
$var reg       1 )    ex_alu_src  $end
$var reg       1 *    predictedTaken  $end
$var reg       1 +    invalid_inst  $end
$var reg       1 ,    ex_wb_reg_file  $end
$var reg       5 -    alu_rd [4:0] $end
$var reg       2 .    operand_a_forward_cntl [1:0] $end
$var reg       2 /    operand_b_forward_cntl [1:0] $end
$var reg      32 0    data_forward_mem [31:0] $end
$var reg      32 1    data_forward_wb [31:0] $end
$var wire     32 2    result_alu [31:0] $end
$var wire     32 3    op1_selected [31:0] $end
$var wire     32 4    op2_selected [31:0] $end
$var wire     32 5    pc_jump_addr [31:0] $end
$var wire      1 6    jump_en  $end
$var wire      1 7    update_btb  $end
$var wire     32 8    calc_jump_addr [31:0] $end
$var wire      5 9    wb_rd [4:0] $end
$var wire      1 :    wb_reg_file  $end
$var integer  32 ;    i  $end
$var integer  32 <    j  $end
$var integer  32 =    k  $end

$scope module dut $end
$var wire     32 >    pc [31:0] $end
$var wire     32 ?    op1 [31:0] $end
$var wire     32 @    op2 [31:0] $end
$var wire      1 A    pipeline_flush  $end
$var wire     32 B    immediate [31:0] $end
$var wire      7 C    func7 [6:0] $end
$var wire      3 D    func3 [2:0] $end
$var wire      7 E    opcode [6:0] $end
$var wire      1 F    ex_alu_src  $end
$var wire      1 G    predictedTaken  $end
$var wire      1 H    invalid_inst  $end
$var wire      1 I    ex_wb_reg_file  $end
$var wire      5 J    alu_rd [4:0] $end
$var wire      2 K    operand_a_forward_cntl [1:0] $end
$var wire      2 L    operand_b_forward_cntl [1:0] $end
$var wire     32 M    data_forward_mem [31:0] $end
$var wire     32 N    data_forward_wb [31:0] $end
$var wire     32 2    result_alu [31:0] $end
$var wire     32 3    op1_selected [31:0] $end
$var wire     32 4    op2_selected [31:0] $end
$var wire     32 5    pc_jump_addr [31:0] $end
$var wire      1 6    jump_en  $end
$var wire      1 7    update_btb  $end
$var wire     32 8    calc_jump_addr [31:0] $end
$var wire      5 9    wb_rd [4:0] $end
$var wire      1 :    wb_reg_file  $end
$var reg      32 O    op1_forwarded [31:0] $end
$var reg      32 P    op2_forwarded [31:0] $end
$var reg      32 Q    op1_alu [31:0] $end
$var reg      32 R    op2_alu [31:0] $end
$var wire     32 S    alu_result [31:0] $end
$var wire     32 T    op1_valid [31:0] $end
$var wire     32 U    op2_valid [31:0] $end
$var wire      1 V    zero_flag  $end
$var wire      1 W    carry_flag  $end
$var wire      1 X    negative_flag  $end
$var wire      1 Y    overflow_flag  $end
$var wire      1 Z    add_res  $end
$var wire      1 [    is_sub  $end
$var wire      1 \    shift_res  $end
$var wire      1 ]    imm  $end
$var wire      1 ^    logic_res  $end
$var wire      1 _    comp_res  $end

$scope module pc_jump_inst $end
$var wire     32 >    pc [31:0] $end
$var wire     32 B    immediate [31:0] $end
$var wire     32 `    op1 [31:0] $end
$var wire      7 E    opcode [6:0] $end
$var wire      3 D    func3 [2:0] $end
$var wire      1 W    carry_flag  $end
$var wire      1 V    zero_flag  $end
$var wire      1 X    negative_flag  $end
$var wire      1 Y    overflow_flag  $end
$var wire      1 G    predictedTaken  $end
$var wire     32 5    update_pc [31:0] $end
$var wire     32 8    jump_addr [31:0] $end
$var wire      1 6    modify_pc  $end
$var wire      1 7    update_btb  $end
$var wire     32 a    input_a [31:0] $end
$var wire     32 b    adder_out [31:0] $end
$var wire     32 c    pc_inc [31:0] $end
$var wire      1 d    jump_inst  $end
$var wire      1 e    branch_inst  $end
$var wire      1 f    jalr_inst  $end
$var wire      1 g    branch_taken  $end
$var wire      1 h    jump_en  $end
$var wire      1 i    beq  $end
$var wire      1 j    bne  $end
$var wire      1 k    blt  $end
$var wire      1 l    bge  $end
$var wire      1 m    bltu  $end
$var wire      1 n    bgeu  $end
$upscope $end


$scope module alu_top_inst $end
$var wire     32 o    op1 [31:0] $end
$var wire     32 p    op2 [31:0] $end
$var wire     32 B    imm [31:0] $end
$var wire      7 E    opcode [6:0] $end
$var wire      3 D    func3 [2:0] $end
$var wire      7 C    func7 [6:0] $end
$var reg      32 q    result_alu [31:0] $end
$var wire      1 W    carry_flag  $end
$var wire      1 V    zero_flag  $end
$var wire      1 X    negative_flag  $end
$var wire      1 Y    overflow_flag  $end
$var wire      1 r    is_sub  $end
$var wire     32 s    add_res [31:0] $end
$var wire     32 t    shift_res [31:0] $end
$var wire     32 u    logic_res [31:0] $end
$var wire     32 v    comp_res [31:0] $end

$scope module ADD_UNIT $end
$var wire     32 o    op1 [31:0] $end
$var wire     32 p    op2 [31:0] $end
$var wire      1 r    sub  $end
$var wire     32 s    result_alu [31:0] $end
$var wire      1 W    carry_flag  $end
$var wire      1 V    zero_flag  $end
$var wire      1 X    negative_flag  $end
$var wire      1 Y    overflow_flag  $end
$var wire     32 w    op2_in [31:0] $end
$var wire      1 x    cin_in  $end
$var reg      32 y    s [31:0] $end
$var reg      33 z    c [32:0] $end
$var integer  32 {    i  $end
$upscope $end


$scope module SHIFT_UNIT $end
$var wire     32 o    op1 [31:0] $end
$var wire     32 p    op2 [31:0] $end
$var wire      7 E    opcode [6:0] $end
$var wire      3 D    func3 [2:0] $end
$var wire      7 C    func7 [6:0] $end
$var wire     32 B    imm [31:0] $end
$var reg      32 |    result_alu [31:0] $end
$var parameter  7 }    OPCODE_R  $end
$var parameter  7 ~    OPCODE_I  $end
$var reg       5 !!   shamt [4:0] $end
$upscope $end


$scope module LOGIC_UNIT $end
$var wire     32 o    op1 [31:0] $end
$var wire     32 p    op2 [31:0] $end
$var wire      7 E    opcode [6:0] $end
$var wire      3 D    func3 [2:0] $end
$var reg      32 "!   result_alu [31:0] $end
$var parameter  7 #!   OPCODE_R  $end
$var parameter  7 $!   OPCODE_I  $end
$upscope $end


$scope module COMP_UNIT $end
$var wire     32 o    op1 [31:0] $end
$var wire     32 p    op2 [31:0] $end
$var wire      7 E    opcode [6:0] $end
$var wire      3 D    func3 [2:0] $end
$var reg      32 %!   result_alu [31:0] $end
$var parameter  7 &!   OPCODE_R  $end
$var parameter  7 '!   OPCODE_I  $end
$upscope $end

$upscope $end


$scope module ADD_UNIT $end
$var wire     32 ?    op1 [31:0] $end
$var wire     32 @    op2 [31:0] $end
$var wire      1 [    sub  $end
$var wire      1 (!   result_alu [31] $end
$var wire      1 )!   result_alu [30] $end
$var wire      1 *!   result_alu [29] $end
$var wire      1 +!   result_alu [28] $end
$var wire      1 ,!   result_alu [27] $end
$var wire      1 -!   result_alu [26] $end
$var wire      1 .!   result_alu [25] $end
$var wire      1 /!   result_alu [24] $end
$var wire      1 0!   result_alu [23] $end
$var wire      1 1!   result_alu [22] $end
$var wire      1 2!   result_alu [21] $end
$var wire      1 3!   result_alu [20] $end
$var wire      1 4!   result_alu [19] $end
$var wire      1 5!   result_alu [18] $end
$var wire      1 6!   result_alu [17] $end
$var wire      1 7!   result_alu [16] $end
$var wire      1 8!   result_alu [15] $end
$var wire      1 9!   result_alu [14] $end
$var wire      1 :!   result_alu [13] $end
$var wire      1 ;!   result_alu [12] $end
$var wire      1 <!   result_alu [11] $end
$var wire      1 =!   result_alu [10] $end
$var wire      1 >!   result_alu [9] $end
$var wire      1 ?!   result_alu [8] $end
$var wire      1 @!   result_alu [7] $end
$var wire      1 A!   result_alu [6] $end
$var wire      1 B!   result_alu [5] $end
$var wire      1 C!   result_alu [4] $end
$var wire      1 D!   result_alu [3] $end
$var wire      1 E!   result_alu [2] $end
$var wire      1 F!   result_alu [1] $end
$var wire      1 Z    result_alu [0] $end
$var wire      1 W    carry_flag  $end
$var wire      1 V    zero_flag  $end
$var wire      1 X    negative_flag  $end
$var wire      1 Y    overflow_flag  $end
$var wire     32 G!   op2_in [31:0] $end
$var wire      1 H!   cin_in  $end
$var reg      32 I!   s [31:0] $end
$var reg      33 J!   c [32:0] $end
$var integer  32 K!   i  $end
$upscope $end


$scope module SHIFT_UNIT $end
$var wire     32 ?    op1 [31:0] $end
$var wire     32 @    op2 [31:0] $end
$var wire      7 E    opcode [6:0] $end
$var wire      3 D    func3 [2:0] $end
$var wire      7 C    func7 [6:0] $end
$var wire      1 L!   imm [31] $end
$var wire      1 M!   imm [30] $end
$var wire      1 N!   imm [29] $end
$var wire      1 O!   imm [28] $end
$var wire      1 P!   imm [27] $end
$var wire      1 Q!   imm [26] $end
$var wire      1 R!   imm [25] $end
$var wire      1 S!   imm [24] $end
$var wire      1 T!   imm [23] $end
$var wire      1 U!   imm [22] $end
$var wire      1 V!   imm [21] $end
$var wire      1 W!   imm [20] $end
$var wire      1 X!   imm [19] $end
$var wire      1 Y!   imm [18] $end
$var wire      1 Z!   imm [17] $end
$var wire      1 [!   imm [16] $end
$var wire      1 \!   imm [15] $end
$var wire      1 ]!   imm [14] $end
$var wire      1 ^!   imm [13] $end
$var wire      1 _!   imm [12] $end
$var wire      1 `!   imm [11] $end
$var wire      1 a!   imm [10] $end
$var wire      1 b!   imm [9] $end
$var wire      1 c!   imm [8] $end
$var wire      1 d!   imm [7] $end
$var wire      1 e!   imm [6] $end
$var wire      1 f!   imm [5] $end
$var wire      1 g!   imm [4] $end
$var wire      1 h!   imm [3] $end
$var wire      1 i!   imm [2] $end
$var wire      1 j!   imm [1] $end
$var wire      1 ]    imm [0] $end
$var reg      32 k!   result_alu [31:0] $end
$var parameter  7 l!   OPCODE_R  $end
$var parameter  7 m!   OPCODE_I  $end
$var reg       5 n!   shamt [4:0] $end
$upscope $end


$scope module LOGIC_UNIT $end
$var wire     32 ?    op1 [31:0] $end
$var wire     32 @    op2 [31:0] $end
$var wire      7 E    opcode [6:0] $end
$var wire      3 D    func3 [2:0] $end
$var reg      32 o!   result_alu [31:0] $end
$var parameter  7 p!   OPCODE_R  $end
$var parameter  7 q!   OPCODE_I  $end
$upscope $end


$scope module COMP_UNIT $end
$var wire     32 ?    op1 [31:0] $end
$var wire     32 @    op2 [31:0] $end
$var wire      7 E    opcode [6:0] $end
$var wire      3 D    func3 [2:0] $end
$var reg      32 r!   result_alu [31:0] $end
$var parameter  7 s!   OPCODE_R  $end
$var parameter  7 t!   OPCODE_I  $end
$upscope $end

$upscope $end

$upscope $end

$enddefinitions $end
$dumpvars
b10011 t!
b110011 s!
b10011 q!
b110011 p!
b10011 m!
b110011 l!
b10011 '!
b110011 &!
b10011 $!
b110011 #!
b10011 ~
b110011 }
bx !
b10000 "
b100 #
0$
b100000 %
bx &
bx '
bx (
x)
0*
0+
0,
b11 -
b0 .
b0 /
b0 0
b0 1
bz 2
b10000 3
b100 4
bx 5
x6
x7
bx 8
b11 9
0:
bx ;
bx <
bx =
bx >
b10000 ?
b100 @
0A
b100000 B
bx C
bx D
bx E
xF
0G
0H
0I
b11 J
b0 K
b0 L
b0 M
b0 N
b10000 O
b100 P
b10000 Q
b0x00x00 R
b0 S
b10000 T
b0x00x00 U
xV
xW
xX
xY
xZ
z[
0\
z]
0^
0_
b10000 `
bx a
bx b
bx c
xd
xe
xf
xg
xh
xi
xj
xk
xl
xm
xn
b10000 o
b0x00x00 p
b0 q
xr
bx s
b0 t
b0 u
b0 v
bx w
xx
bx y
bx z
b100000 {
b0 |
b0 !!
b0 "!
b0 %!
x(!
x)!
x*!
x+!
x,!
x-!
x.!
x/!
x0!
x1!
x2!
x3!
x4!
x5!
x6!
x7!
x8!
x9!
x:!
x;!
x<!
x=!
x>!
x?!
x@!
xA!
xB!
xC!
xD!
xE!
xF!
bx G!
xH!
bx I!
bx J!
b100000 K!
zL!
zM!
zN!
zO!
zP!
zQ!
zR!
zS!
zT!
zU!
zV!
zW!
zX!
zY!
zZ!
z[!
z\!
z]!
z^!
z_!
z`!
za!
zb!
zc!
zd!
ze!
zf!
zg!
zh!
zi!
zj!
b0 k!
b0 n!
b0 o!
b0 r!
$end
#5
b0 ;
b0 <
b0 =
b110011 (
b0 '
b0 &
0)
0F
b0 C
b0 D
b110011 E
b100 R
b100 n!
b0x00 !!
bx q
b100 p
b100 U
0e
0f
0n
0m
0l
0k
0j
1i
bx S
0r
0x
b100 !!
bx0 z
b0 {
bx00 z
b1 {
bx000 z
b10 {
bx0000 z
b11 {
bx00000 z
b100 {
b101 {
b110 {
b111 {
b1000 {
b1001 {
b1010 {
b1011 {
b1100 {
b1101 {
b1110 {
b1111 {
b10000 {
b10001 {
b10010 {
b10011 {
b10100 {
b10101 {
b10110 {
b10111 {
b11000 {
b11001 {
b11010 {
b11011 {
b11100 {
b11101 {
b11110 {
b11111 {
b100000 {
0d
b100 w
0h
07
06
b0 {
bx0 y
b1 {
bx00 y
b10 {
bx100 y
b11 {
bx0100 y
b100 {
bx10100 y
bx000000 z
b101 {
bx010100 y
bx0000000 z
b110 {
bx0010100 y
bx00000000 z
b111 {
bx00010100 y
bx000000000 z
b1000 {
bx000010100 y
bx0000000000 z
b1001 {
bx0000010100 y
bx00000000000 z
b1010 {
bx00000010100 y
bx000000000000 z
b1011 {
bx000000010100 y
bx0000000000000 z
b1100 {
bx0000000010100 y
bx00000000000000 z
b1101 {
bx00000000010100 y
bx000000000000000 z
b1110 {
bx000000000010100 y
bx0000000000000000 z
b1111 {
bx0000000000010100 y
bx00000000000000000 z
b10000 {
bx00000000000010100 y
bx000000000000000000 z
b10001 {
bx000000000000010100 y
bx0000000000000000000 z
b10010 {
bx0000000000000010100 y
bx00000000000000000000 z
b10011 {
bx00000000000000010100 y
bx000000000000000000000 z
b10100 {
bx000000000000000010100 y
bx0000000000000000000000 z
b10101 {
bx0000000000000000010100 y
bx00000000000000000000000 z
b10110 {
bx00000000000000000010100 y
bx000000000000000000000000 z
b10111 {
bx000000000000000000010100 y
bx0000000000000000000000000 z
b11000 {
bx0000000000000000000010100 y
bx00000000000000000000000000 z
b11001 {
bx00000000000000000000010100 y
bx000000000000000000000000000 z
b11010 {
bx000000000000000000000010100 y
bx0000000000000000000000000000 z
b11011 {
bx0000000000000000000000010100 y
bx00000000000000000000000000000 z
b11100 {
bx00000000000000000000000010100 y
bx000000000000000000000000000000 z
b11101 {
bx000000000000000000000000010100 y
bx0000000000000000000000000000000 z
b11110 {
bx0000000000000000000000000010100 y
bx00000000000000000000000000000000 z
b11111 {
b10100 y
b0 z
b100000 {
b10100 s
b10100 q
b10100 S
#7
1)
1F
b100000 R
b100000 p
b100000 U
b0 !!
b100000 w
b0 {
b1 {
b10 {
b10000 y
b11 {
b100 {
b101 {
b110000 y
b110 {
b111 {
b1000 {
b1001 {
b1010 {
b1011 {
b1100 {
b1101 {
b1110 {
b1111 {
b10000 {
b10001 {
b10010 {
b10011 {
b10100 {
b10101 {
b10110 {
b10111 {
b11000 {
b11001 {
b11010 {
b11011 {
b11100 {
b11101 {
b11110 {
b11111 {
b100000 {
b110000 s
b110000 q
b110000 S
#11
b1 =
b100000 &
0)
0F
b100000 C
b100 R
b100 p
b100 U
1r
1x
b100 !!
b1 z
b0 {
b110001 y
b1 {
b10 {
b11 {
b100 {
b101 {
b110 {
b111 {
b1000 {
b1001 {
b1010 {
b1011 {
b1100 {
b1101 {
b1110 {
b1111 {
b10000 {
b10001 {
b10010 {
b10011 {
b10100 {
b10101 {
b10110 {
b10111 {
b11000 {
b11001 {
b11010 {
b11011 {
b11100 {
b11101 {
b11110 {
b11111 {
b100000 {
b110001 s
b11111111111111111111111111111011 w
b110001 q
b0 {
b110000 y
b11 z
b1 {
b111 z
b10 {
b110100 y
b11 {
b111100 y
b100 {
b101100 y
b100111 z
b101 {
b1100 y
b1100111 z
b110 {
b11100111 z
b111 {
b111100111 z
b1000 {
b1111100111 z
b1001 {
b11111100111 z
b1010 {
b111111100111 z
b1011 {
b1111111100111 z
b1100 {
b11111111100111 z
b1101 {
b111111111100111 z
b1110 {
b1111111111100111 z
b1111 {
b11111111111100111 z
b10000 {
b111111111111100111 z
b10001 {
b1111111111111100111 z
b10010 {
b11111111111111100111 z
b10011 {
b111111111111111100111 z
b10100 {
b1111111111111111100111 z
b10101 {
b11111111111111111100111 z
b10110 {
b111111111111111111100111 z
b10111 {
b1111111111111111111100111 z
b11000 {
b11111111111111111111100111 z
b11001 {
b111111111111111111111100111 z
b11010 {
b1111111111111111111111100111 z
b11011 {
b11111111111111111111111100111 z
b11100 {
b111111111111111111111111100111 z
b11101 {
b1111111111111111111111111100111 z
b11110 {
b11111111111111111111111111100111 z
b11111 {
b111111111111111111111111111100111 z
b100000 {
b1100 s
b110001 S
b1100 q
b1100 S
#13
1)
1F
b100000 R
b100000 p
b100000 U
b0 !!
b11111111111111111111111111011111 w
b0 {
b1 {
b10 {
b1000 y
b111111111111111111111111111101111 z
b11 {
b0 y
b111111111111111111111111111111111 z
b100 {
b10000 y
b101 {
b110000 y
b111111111111111111111111110111111 z
b110 {
b1110000 y
b111111111111111111111111100111111 z
b111 {
b11110000 y
b111111111111111111111111000111111 z
b1000 {
b111110000 y
b111111111111111111111110000111111 z
b1001 {
b1111110000 y
b111111111111111111111100000111111 z
b1010 {
b11111110000 y
b111111111111111111111000000111111 z
b1011 {
b111111110000 y
b111111111111111111110000000111111 z
b1100 {
b1111111110000 y
b111111111111111111100000000111111 z
b1101 {
b11111111110000 y
b111111111111111111000000000111111 z
b1110 {
b111111111110000 y
b111111111111111110000000000111111 z
b1111 {
b1111111111110000 y
b111111111111111100000000000111111 z
b10000 {
b11111111111110000 y
b111111111111111000000000000111111 z
b10001 {
b111111111111110000 y
b111111111111110000000000000111111 z
b10010 {
b1111111111111110000 y
b111111111111100000000000000111111 z
b10011 {
b11111111111111110000 y
b111111111111000000000000000111111 z
b10100 {
b111111111111111110000 y
b111111111110000000000000000111111 z
b10101 {
b1111111111111111110000 y
b111111111100000000000000000111111 z
b10110 {
b11111111111111111110000 y
b111111111000000000000000000111111 z
b10111 {
b111111111111111111110000 y
b111111110000000000000000000111111 z
b11000 {
b1111111111111111111110000 y
b111111100000000000000000000111111 z
b11001 {
b11111111111111111111110000 y
b111111000000000000000000000111111 z
b11010 {
b111111111111111111111110000 y
b111110000000000000000000000111111 z
b11011 {
b1111111111111111111111110000 y
b111100000000000000000000000111111 z
b11100 {
b11111111111111111111111110000 y
b111000000000000000000000000111111 z
b11101 {
b111111111111111111111111110000 y
b110000000000000000000000000111111 z
b11110 {
b1111111111111111111111111110000 y
b100000000000000000000000000111111 z
b11111 {
b11111111111111111111111111110000 y
b111111 z
b100000 {
b11111111111111111111111111110000 s
b11111111111111111111111111110000 q
b11111111111111111111111111110000 S
#17
b10 =
b1 <
b0 =
b1 '
b0 &
0)
0F
b0 C
b1 D
b100 R
b100000000 k!
b10000 |
b0 q
b100 p
b100 U
1j
0i
b0 S
0r
b10000 t
0x
b100 !!
b100000000 |
b10000 q
b111110 z
b0 {
b11111111111111111111111111110001 y
b111100 z
b1 {
b11111111111111111111111111110011 y
b111000 z
b10 {
b11111111111111111111111111110111 y
b110000 z
b11 {
b11111111111111111111111111111111 y
b100000 z
b100 {
b11111111111111111111111111101111 y
b101 {
b110 {
b111 {
b1000 {
b1001 {
b1010 {
b1011 {
b1100 {
b1101 {
b1110 {
b1111 {
b10000 {
b10001 {
b10010 {
b10011 {
b10100 {
b10101 {
b10110 {
b10111 {
b11000 {
b11001 {
b11010 {
b11011 {
b11100 {
b11101 {
b11110 {
b11111 {
b100000 {
b11111111111111111111111111101111 s
b10000 S
b100 w
b100000000 t
b100000000 q
b0 {
b11111111111111111111111111101110 y
b1 {
b11111111111111111111111111101100 y
b10 {
b11 {
b11111111111111111111111111100100 y
b100 {
b11111111111111111111111111110100 y
b0 z
b101 {
b11111111111111111111111111010100 y
b110 {
b11111111111111111111111110010100 y
b111 {
b11111111111111111111111100010100 y
b1000 {
b11111111111111111111111000010100 y
b1001 {
b11111111111111111111110000010100 y
b1010 {
b11111111111111111111100000010100 y
b1011 {
b11111111111111111111000000010100 y
b1100 {
b11111111111111111110000000010100 y
b1101 {
b11111111111111111100000000010100 y
b1110 {
b11111111111111111000000000010100 y
b1111 {
b11111111111111110000000000010100 y
b10000 {
b11111111111111100000000000010100 y
b10001 {
b11111111111111000000000000010100 y
b10010 {
b11111111111110000000000000010100 y
b10011 {
b11111111111100000000000000010100 y
b10100 {
b11111111111000000000000000010100 y
b10101 {
b11111111110000000000000000010100 y
b10110 {
b11111111100000000000000000010100 y
b10111 {
b11111111000000000000000000010100 y
b11000 {
b11111110000000000000000000010100 y
b11001 {
b11111100000000000000000000010100 y
b11010 {
b11111000000000000000000000010100 y
b11011 {
b11110000000000000000000000010100 y
b11100 {
b11100000000000000000000000010100 y
b11101 {
b11000000000000000000000000010100 y
b11110 {
b10000000000000000000000000010100 y
b11111 {
b10100 y
b100000 {
b10100 s
b100000000 S
#19
1)
1F
b100000 R
b100000 p
b100000 U
b0 !!
b10000 |
b100000 w
b10000 t
b0 {
b1 {
b10 {
b10000 y
b11 {
b100 {
b101 {
b110000 y
b110 {
b111 {
b1000 {
b1001 {
b1010 {
b1011 {
b1100 {
b1101 {
b1110 {
b1111 {
b10000 {
b10001 {
b10010 {
b10011 {
b10100 {
b10101 {
b10110 {
b10111 {
b11000 {
b11001 {
b11010 {
b11011 {
b11100 {
b11101 {
b11110 {
b11111 {
b100000 {
b10000 q
b10000 S
b110000 s
#23
b1 =
b100000 &
0)
0F
b100000 C
b100 R
b0 k!
b0 |
b100 p
b100 U
b0 t
b100 !!
b0 q
b0 S
b100 w
b0 {
b1 {
b10 {
b110100 y
b11 {
b100 {
b101 {
b10100 y
b110 {
b111 {
b1000 {
b1001 {
b1010 {
b1011 {
b1100 {
b1101 {
b1110 {
b1111 {
b10000 {
b10001 {
b10010 {
b10011 {
b10100 {
b10101 {
b10110 {
b10111 {
b11000 {
b11001 {
b11010 {
b11011 {
b11100 {
b11101 {
b11110 {
b11111 {
b100000 {
b10100 s
#25
1)
1F
b100000 R
b100000 p
b100000 U
b0 !!
b100000 w
b0 {
b1 {
b10 {
b10000 y
b11 {
b100 {
b101 {
b110000 y
b110 {
b111 {
b1000 {
b1001 {
b1010 {
b1011 {
b1100 {
b1101 {
b1110 {
b1111 {
b10000 {
b10001 {
b10010 {
b10011 {
b10100 {
b10101 {
b10110 {
b10111 {
b11000 {
b11001 {
b11010 {
b11011 {
b11100 {
b11101 {
b11110 {
b11111 {
b100000 {
b110000 s
#29
b10 =
b10 <
b0 =
b10 '
b0 &
0)
0F
b0 C
b10 D
b100 R
b1 %!
b100 p
b100 U
0j
b1 v
b0 %!
b100 !!
b1 q
b1 S
0g
b100 w
b0 v
b0 {
b1 {
b10 {
b110100 y
b11 {
b100 {
b101 {
b10100 y
b110 {
b111 {
b1000 {
b1001 {
b1010 {
b1011 {
b1100 {
b1101 {
b1110 {
b1111 {
b10000 {
b10001 {
b10010 {
b10011 {
b10100 {
b10101 {
b10110 {
b10111 {
b11000 {
b11001 {
b11010 {
b11011 {
b11100 {
b11101 {
b11110 {
b11111 {
b100000 {
b0 q
b0 S
b10100 s
#31
1)
1F
b100000 R
b100000 p
b100000 U
b1 %!
b0 !!
b100000 w
b1 v
b0 {
b1 {
b10 {
b10000 y
b11 {
b100 {
b101 {
b110000 y
b110 {
b111 {
b1000 {
b1001 {
b1010 {
b1011 {
b1100 {
b1101 {
b1110 {
b1111 {
b10000 {
b10001 {
b10010 {
b10011 {
b10100 {
b10101 {
b10110 {
b10111 {
b11000 {
b11001 {
b11010 {
b11011 {
b11100 {
b11101 {
b11110 {
b11111 {
b100000 {
b1 q
b1 S
b110000 s
#35
b1 =
b100000 &
0)
0F
b100000 C
b100 R
b100 p
b100 U
b0 %!
b100 !!
b100 w
b0 v
b0 {
b1 {
b10 {
b110100 y
b11 {
b100 {
b101 {
b10100 y
b110 {
b111 {
b1000 {
b1001 {
b1010 {
b1011 {
b1100 {
b1101 {
b1110 {
b1111 {
b10000 {
b10001 {
b10010 {
b10011 {
b10100 {
b10101 {
b10110 {
b10111 {
b11000 {
b11001 {
b11010 {
b11011 {
b11100 {
b11101 {
b11110 {
b11111 {
b100000 {
b0 q
b0 S
b10100 s
#37
1)
1F
b100000 R
b100000 p
b100000 U
b1 %!
b0 !!
b100000 w
b1 v
b0 {
b1 {
b10 {
b10000 y
b11 {
b100 {
b101 {
b110000 y
b110 {
b111 {
b1000 {
b1001 {
b1010 {
b1011 {
b1100 {
b1101 {
b1110 {
b1111 {
b10000 {
b10001 {
b10010 {
b10011 {
b10100 {
b10101 {
b10110 {
b10111 {
b11000 {
b11001 {
b11010 {
b11011 {
b11100 {
b11101 {
b11110 {
b11111 {
b100000 {
b1 q
b1 S
b110000 s
#41
b10 =
b11 <
b1 ;
b0 <
b0 =
b10011 (
b0 '
b0 &
0)
0F
b0 C
b0 D
b10011 E
b100 R
bz n!
b110000 q
b0 %!
b100 p
b100 U
1i
b0 v
b110000 S
xg
b100 w
b0 {
b1 {
b10 {
b110100 y
b11 {
b100 {
b101 {
b10100 y
b110 {
b111 {
b1000 {
b1001 {
b1010 {
b1011 {
b1100 {
b1101 {
b1110 {
b1111 {
b10000 {
b10001 {
b10010 {
b10011 {
b10100 {
b10101 {
b10110 {
b10111 {
b11000 {
b11001 {
b11010 {
b11011 {
b11100 {
b11101 {
b11110 {
b11111 {
b100000 {
b10100 s
b10100 q
b10100 S
#43
1)
1F
b100000 R
b100000 p
b100000 U
b100000 w
b0 {
b1 {
b10 {
b10000 y
b11 {
b100 {
b101 {
b110000 y
b110 {
b111 {
b1000 {
b1001 {
b1010 {
b1011 {
b1100 {
b1101 {
b1110 {
b1111 {
b10000 {
b10001 {
b10010 {
b10011 {
b10100 {
b10101 {
b10110 {
b10111 {
b11000 {
b11001 {
b11010 {
b11011 {
b11100 {
b11101 {
b11110 {
b11111 {
b100000 {
b110000 s
b110000 q
b110000 S
#47
b1 =
b100000 &
0)
0F
b100000 C
b100 R
b100 p
b100 U
b100 w
b0 {
b1 {
b10 {
b110100 y
b11 {
b100 {
b101 {
b10100 y
b110 {
b111 {
b1000 {
b1001 {
b1010 {
b1011 {
b1100 {
b1101 {
b1110 {
b1111 {
b10000 {
b10001 {
b10010 {
b10011 {
b10100 {
b10101 {
b10110 {
b10111 {
b11000 {
b11001 {
b11010 {
b11011 {
b11100 {
b11101 {
b11110 {
b11111 {
b100000 {
b10100 s
b10100 q
b10100 S
#49
1)
1F
b100000 R
b100000 p
b100000 U
b100000 w
b0 {
b1 {
b10 {
b10000 y
b11 {
b100 {
b101 {
b110000 y
b110 {
b111 {
b1000 {
b1001 {
b1010 {
b1011 {
b1100 {
b1101 {
b1110 {
b1111 {
b10000 {
b10001 {
b10010 {
b10011 {
b10100 {
b10101 {
b10110 {
b10111 {
b11000 {
b11001 {
b11010 {
b11011 {
b11100 {
b11101 {
b11110 {
b11111 {
b100000 {
b110000 s
b110000 q
b110000 S
#53
b10 =
b1 <
b0 =
b1 '
b0 &
0)
0F
b0 C
b1 D
b100 R
b0 q
b100 p
b100 U
1j
0i
b0 S
b100 w
b0 {
b1 {
b10 {
b110100 y
b11 {
b100 {
b101 {
b10100 y
b110 {
b111 {
b1000 {
b1001 {
b1010 {
b1011 {
b1100 {
b1101 {
b1110 {
b1111 {
b10000 {
b10001 {
b10010 {
b10011 {
b10100 {
b10101 {
b10110 {
b10111 {
b11000 {
b11001 {
b11010 {
b11011 {
b11100 {
b11101 {
b11110 {
b11111 {
b100000 {
b10100 s
#55
1)
1F
b100000 R
b100000 p
b100000 U
b100000 w
b0 {
b1 {
b10 {
b10000 y
b11 {
b100 {
b101 {
b110000 y
b110 {
b111 {
b1000 {
b1001 {
b1010 {
b1011 {
b1100 {
b1101 {
b1110 {
b1111 {
b10000 {
b10001 {
b10010 {
b10011 {
b10100 {
b10101 {
b10110 {
b10111 {
b11000 {
b11001 {
b11010 {
b11011 {
b11100 {
b11101 {
b11110 {
b11111 {
b100000 {
b110000 s
#59
b1 =
b100000 &
0)
0F
b100000 C
b100 R
b100 p
b100 U
b100 w
b0 {
b1 {
b10 {
b110100 y
b11 {
b100 {
b101 {
b10100 y
b110 {
b111 {
b1000 {
b1001 {
b1010 {
b1011 {
b1100 {
b1101 {
b1110 {
b1111 {
b10000 {
b10001 {
b10010 {
b10011 {
b10100 {
b10101 {
b10110 {
b10111 {
b11000 {
b11001 {
b11010 {
b11011 {
b11100 {
b11101 {
b11110 {
b11111 {
b100000 {
b10100 s
#61
1)
1F
b100000 R
b100000 p
b100000 U
b100000 w
b0 {
b1 {
b10 {
b10000 y
b11 {
b100 {
b101 {
b110000 y
b110 {
b111 {
b1000 {
b1001 {
b1010 {
b1011 {
b1100 {
b1101 {
b1110 {
b1111 {
b10000 {
b10001 {
b10010 {
b10011 {
b10100 {
b10101 {
b10110 {
b10111 {
b11000 {
b11001 {
b11010 {
b11011 {
b11100 {
b11101 {
b11110 {
b11111 {
b100000 {
b110000 s
